{
    "G Data": {
        "Performance Score": "4.5/6.0", 
        "Protection Score": "6.0/6.0", 
        "link": "https://www.av-test.org//en/antivirus/home-windows/windows-7/february-2016/g-data-internetsecurity-2016-160544/", 
        "Usability Score": "6.0/6.0"
    }, 
    "Bitdefender": {
        "Performance Score": "5.0/6.0", 
        "Protection Score": "6.0/6.0", 
        "link": "https://www.av-test.org//en/antivirus/home-windows/windows-7/february-2016/bitdefender-internet-security-2016-160591/", 
        "Usability Score": "6.0/6.0"
    }, 
    "McAfee": {
        "Performance Score": "5.0/6.0", 
        "Protection Score": "5.0/6.0", 
        "link": "https://www.av-test.org//en/antivirus/home-windows/windows-7/february-2016/mcafee-internet-security-2016-160564/", 
        "Usability Score": "6.0/6.0"
    }, 
    "Norton": {
        "Performance Score": "5.5/6.0", 
        "Protection Score": "6.0/6.0", 
        "link": "https://www.av-test.org//en/antivirus/home-windows/windows-7/february-2016/norton-norton-security-2016-160516/", 
        "Usability Score": "6.0/6.0"
    }, 
    "Qihoo 360": {
        "Performance Score": "4.5/6.0", 
        "Protection Score": "6.0/6.0", 
        "link": "https://www.av-test.org//en/antivirus/home-windows/windows-7/february-2016/qihoo-360-360-antivirus-5.0-160514/", 
        "Usability Score": "6.0/6.0"
    }, 
    "K7 Computing": {
        "Performance Score": "5.0/6.0", 
        "Protection Score": "5.5/6.0", 
        "link": "https://www.av-test.org//en/antivirus/home-windows/windows-7/february-2016/k7-computing-total-security-15.1-160549/", 
        "Usability Score": "5.5/6.0"
    }, 
    "Avast": {
        "Performance Score": "5.0/6.0", 
        "Protection Score": "5.0/6.0", 
        "link": "https://www.av-test.org//en/antivirus/home-windows/windows-7/february-2016/avast-free-antivirus-2016-160513/", 
        "Usability Score": "6.0/6.0"
    }, 
    "Comodo": {
        "Performance Score": "4.5/6.0", 
        "Protection Score": "4.0/6.0", 
        "link": "https://www.av-test.org//en/antivirus/home-windows/windows-7/february-2016/comodo-internet-security-premium-8.2-160521/", 
        "Usability Score": "4.0/6.0"
    }, 
    "F-Secure": {
        "Performance Score": "5.5/6.0", 
        "Protection Score": "6.0/6.0", 
        "link": "https://www.av-test.org//en/antivirus/home-windows/windows-7/february-2016/f-secure-safe-2016-160555/", 
        "Usability Score": "5.0/6.0"
    }, 
    "AhnLab": {
        "Performance Score": "5.5/6.0", 
        "Protection Score": "5.5/6.0", 
        "link": "https://www.av-test.org//en/antivirus/home-windows/windows-7/february-2016/ahnlab-v3-internet-security-9.0-160550/", 
        "Usability Score": "5.0/6.0"
    }, 
    "Kaspersky Lab": {
        "Performance Score": "6.0/6.0", 
        "Protection Score": "6.0/6.0", 
        "link": "https://www.av-test.org//en/antivirus/home-windows/windows-7/february-2016/kaspersky-lab-internet-security-2016-160557/", 
        "Usability Score": "6.0/6.0"
    }, 
    "Emsisoft": {
        "Performance Score": "4.5/6.0", 
        "Protection Score": "6.0/6.0", 
        "link": "https://www.av-test.org//en/antivirus/home-windows/windows-7/february-2016/emsisoft-anti-malware-11.0-160515/", 
        "Usability Score": "6.0/6.0"
    }, 
    "Trend Micro": {
        "Performance Score": "6.0/6.0", 
        "Protection Score": "6.0/6.0", 
        "link": "https://www.av-test.org//en/antivirus/home-windows/windows-7/february-2016/trend-micro-internet-security-2016-160519/", 
        "Usability Score": "6.0/6.0"
    }, 
    "Avira": {
        "Performance Score": "5.5/6.0", 
        "Protection Score": "6.0/6.0", 
        "link": "https://www.av-test.org//en/antivirus/home-windows/windows-7/february-2016/avira-antivirus-pro-2016-160580/", 
        "Usability Score": "6.0/6.0"
    }, 
    "ThreatTrack": {
        "Performance Score": "3.5/6.0", 
        "Protection Score": "3.5/6.0", 
        "link": "https://www.av-test.org//en/antivirus/home-windows/windows-7/february-2016/threattrack-vipre-internet-security-2016-160528/", 
        "Usability Score": "6.0/6.0"
    }, 
    "BullGuard": {
        "Performance Score": "5.0/6.0", 
        "Protection Score": "6.0/6.0", 
        "link": "https://www.av-test.org//en/antivirus/home-windows/windows-7/february-2016/bullguard-internet-security-16.0-160587/", 
        "Usability Score": "5.5/6.0"
    }, 
    "Microsoft": {
        "Performance Score": "5.0/6.0", 
        "Protection Score": "3.0/6.0", 
        "link": "https://www.av-test.org//en/antivirus/home-windows/windows-7/february-2016/microsoft-security-essentials-4.8-160547/", 
        "Usability Score": "6.0/6.0"
    }, 
    "MicroWorld": {
        "Performance Score": "4.5/6.0", 
        "Protection Score": "5.0/6.0", 
        "link": "https://www.av-test.org//en/antivirus/home-windows/windows-7/february-2016/microworld-escan-internet-security-suite-14.0-160571/", 
        "Usability Score": "5.5/6.0"
    }, 
    "ESET": {
        "Performance Score": "4.5/6.0", 
        "Protection Score": "5.5/6.0", 
        "link": "https://www.av-test.org//en/antivirus/home-windows/windows-7/february-2016/eset-smart-security-9.0-160590/", 
        "Usability Score": "6.0/6.0"
    }, 
    "Quick Heal": {
        "Performance Score": "3.5/6.0", 
        "Protection Score": "4.0/6.0", 
        "link": "https://www.av-test.org//en/antivirus/home-windows/windows-7/february-2016/quick-heal-total-security-16.0-160541/", 
        "Usability Score": "5.5/6.0"
    }, 
    "Panda Security": {
        "Performance Score": "3.0/6.0", 
        "Protection Score": "6.0/6.0", 
        "link": "https://www.av-test.org//en/antivirus/home-windows/windows-7/february-2016/panda-security-free-antivirus-16.1-160586/", 
        "Usability Score": "5.5/6.0"
    }, 
    "AVG": {
        "Performance Score": "5.0/6.0", 
        "Protection Score": "6.0/6.0", 
        "link": "https://www.av-test.org//en/antivirus/home-windows/windows-7/february-2016/avg-internet-security-2016-160570/", 
        "Usability Score": "6.0/6.0"
    }
}